Sezona	Vítěz Turné	skončil ve Světovém poháru	Vítěz Světového poháru	Skončil v Turné
2015	Stefan Kraft	3	Severin Freund	8
2014	Thomas Diethart	8	Kamil Stoch	7
2013	Gregor Schlierenzauer	1	Gregor Schlierenzauer	1
2012	Gregor Schlierenzauer	2	Anders Bardal	4
2011	Thomas Morgenstern	1	Thomas Morgenstern	1
2010	Andreas Kofler	4	Simon Ammann	5
2009	Wolfgang Loitzl	3	Gregor Schlierenzauer	3
2008	Janne Ahonen	3	Thomas Morgenstern	2
2007	Anders Jacobsen	2	Adam Małysz	7
2006	Jakub Janda	1	Jakub Janda	1
2005	Janne Ahonen	1	Janne Ahonen	1
2004	Sigurd Pettersen	4	Janne Ahonen	5
2003	Janne Ahonen	4	Adam Małysz	1
2002	Sven Hannawald	2	Adam Małysz	4
2001	Adam Malysz	1	Adam Małysz	1
2000	Andreas Widhoelzl	2	Martin Schmitt	3
1999	Janne Ahonen	2	Martin Schmitt	4
1998	Kazujoši Funaki	2	Primož Peterka	22
1997	Primož Peterka	1	Primož Peterka	1
1996	Jens Weissflog	4	Andreas Goldberger	7
1995	Andreas Goldberger	1	Andreas Goldberger	1
1994	Espen Bredesen	1	Espen Bredesen	1
1993	Andreas Goldberger	1	Andreas Goldberger	1
1992	Toni Nieminen	1	Toni Nieminen	1
1991	Jens Weissflog	8	Andreas Felder	2
1990	Dieter Thoma	4	Ari-Pekka Nikkola	5
1989	Risto Laakkonen	7	Jan Boklöv	5
1988	Matti Nykänen	1	Matti Nykänen	1
1987	Ernst Vettori	2	Vegard Opaas	2
1986	Ernst Vettori	2	Matti Nykänen	-
1985	Jens Weissflog	4	Matti Nykänen	2
1984	Jens Weissflog	1	Jens Weissflog	1
1983	Matti Nykänen	1	Matti Nykänen	1
1982	Manfred Deckert	11	Armin Kogler	10
1981	Hubert Neuper	4	Armin Kogler	2
1980	Hubert Neuper	1	Hubert Neuper	1
